%YAML 1.1
%TAG !u! tag:unity3d.com,2011:
--- !u!1001 &7249196027380142799
PrefabInstance:
  m_ObjectHideFlags: 0
  serializedVersion: 2
  m_Modification:
    serializedVersion: 3
    m_TransformParent: {fileID: 0}
    m_Modifications:
    - target: {fileID: 6460039930286562058, guid: 2609fdadd8f8c214284a7ae82875b512, type: 3}
      propertyPath: m_Name
      value: ButtonStyledRectangle_1
      objectReference: {fileID: 0}
    - target: {fileID: 7109098610761843656, guid: 2609fdadd8f8c214284a7ae82875b512, type: 3}
      propertyPath: m_Pivot.x
      value: 0.5
      objectReference: {fileID: 0}
    - target: {fileID: 7109098610761843656, guid: 2609fdadd8f8c214284a7ae82875b512, type: 3}
      propertyPath: m_Pivot.y
      value: 0.5
      objectReference: {fileID: 0}
    - target: {fileID: 7109098610761843656, guid: 2609fdadd8f8c214284a7ae82875b512, type: 3}
      propertyPath: m_RootOrder
      value: -1
      objectReference: {fileID: 0}
    - target: {fileID: 7109098610761843656, guid: 2609fdadd8f8c214284a7ae82875b512, type: 3}
      propertyPath: m_AnchorMax.x
      value: 0.5
      objectReference: {fileID: 0}
    - target: {fileID: 7109098610761843656, guid: 2609fdadd8f8c214284a7ae82875b512, type: 3}
      propertyPath: m_AnchorMax.y
      value: 0.5
      objectReference: {fileID: 0}
    - target: {fileID: 7109098610761843656, guid: 2609fdadd8f8c214284a7ae82875b512, type: 3}
      propertyPath: m_AnchorMin.x
      value: 0.5
      objectReference: {fileID: 0}
    - target: {fileID: 7109098610761843656, guid: 2609fdadd8f8c214284a7ae82875b512, type: 3}
      propertyPath: m_AnchorMin.y
      value: 0.5
      objectReference: {fileID: 0}
    - target: {fileID: 7109098610761843656, guid: 2609fdadd8f8c214284a7ae82875b512, type: 3}
      propertyPath: m_SizeDelta.x
      value: 100
      objectReference: {fileID: 0}
    - target: {fileID: 7109098610761843656, guid: 2609fdadd8f8c214284a7ae82875b512, type: 3}
      propertyPath: m_SizeDelta.y
      value: 100
      objectReference: {fileID: 0}
    - target: {fileID: 7109098610761843656, guid: 2609fdadd8f8c214284a7ae82875b512, type: 3}
      propertyPath: m_LocalPosition.x
      value: 0
      objectReference: {fileID: 0}
    - target: {fileID: 7109098610761843656, guid: 2609fdadd8f8c214284a7ae82875b512, type: 3}
      propertyPath: m_LocalPosition.y
      value: 0
      objectReference: {fileID: 0}
    - target: {fileID: 7109098610761843656, guid: 2609fdadd8f8c214284a7ae82875b512, type: 3}
      propertyPath: m_LocalPosition.z
      value: 0
      objectReference: {fileID: 0}
    - target: {fileID: 7109098610761843656, guid: 2609fdadd8f8c214284a7ae82875b512, type: 3}
      propertyPath: m_LocalRotation.w
      value: 1
      objectReference: {fileID: 0}
    - target: {fileID: 7109098610761843656, guid: 2609fdadd8f8c214284a7ae82875b512, type: 3}
      propertyPath: m_LocalRotation.x
      value: 0
      objectReference: {fileID: 0}
    - target: {fileID: 7109098610761843656, guid: 2609fdadd8f8c214284a7ae82875b512, type: 3}
      propertyPath: m_LocalRotation.y
      value: 0
      objectReference: {fileID: 0}
    - target: {fileID: 7109098610761843656, guid: 2609fdadd8f8c214284a7ae82875b512, type: 3}
      propertyPath: m_LocalRotation.z
      value: 0
      objectReference: {fileID: 0}
    - target: {fileID: 7109098610761843656, guid: 2609fdadd8f8c214284a7ae82875b512, type: 3}
      propertyPath: m_AnchoredPosition.x
      value: 0
      objectReference: {fileID: 0}
    - target: {fileID: 7109098610761843656, guid: 2609fdadd8f8c214284a7ae82875b512, type: 3}
      propertyPath: m_AnchoredPosition.y
      value: 0
      objectReference: {fileID: 0}
    - target: {fileID: 7109098610761843656, guid: 2609fdadd8f8c214284a7ae82875b512, type: 3}
      propertyPath: m_LocalEulerAnglesHint.x
      value: 0
      objectReference: {fileID: 0}
    - target: {fileID: 7109098610761843656, guid: 2609fdadd8f8c214284a7ae82875b512, type: 3}
      propertyPath: m_LocalEulerAnglesHint.y
      value: 0
      objectReference: {fileID: 0}
    - target: {fileID: 7109098610761843656, guid: 2609fdadd8f8c214284a7ae82875b512, type: 3}
      propertyPath: m_LocalEulerAnglesHint.z
      value: 0
      objectReference: {fileID: 0}
    m_RemovedComponents: []
    m_RemovedGameObjects: []
    m_AddedGameObjects: []
    m_AddedComponents:
    - targetCorrespondingSourceObject: {fileID: 6460039930286562058, guid: 2609fdadd8f8c214284a7ae82875b512, type: 3}
      insertIndex: -1
      addedObject: {fileID: 7111542830173909901}
  m_SourcePrefab: {fileID: 100100000, guid: 2609fdadd8f8c214284a7ae82875b512, type: 3}
--- !u!1 &4412680426632202693 stripped
GameObject:
  m_CorrespondingSourceObject: {fileID: 6460039930286562058, guid: 2609fdadd8f8c214284a7ae82875b512, type: 3}
  m_PrefabInstance: {fileID: 7249196027380142799}
  m_PrefabAsset: {fileID: 0}
--- !u!114 &7111542830173909901
MonoBehaviour:
  m_ObjectHideFlags: 0
  m_CorrespondingSourceObject: {fileID: 0}
  m_PrefabInstance: {fileID: 0}
  m_PrefabAsset: {fileID: 0}
  m_GameObject: {fileID: 4412680426632202693}
  m_Enabled: 1
  m_EditorHideFlags: 0
  m_Script: {fileID: 11500000, guid: 4e29b1a8efbd4b44bb3f3716e73f07ff, type: 3}
  m_Name: 
  m_EditorClassIdentifier: 
  m_Navigation:
    m_Mode: 3
    m_WrapAround: 0
    m_SelectOnUp: {fileID: 0}
    m_SelectOnDown: {fileID: 0}
    m_SelectOnLeft: {fileID: 0}
    m_SelectOnRight: {fileID: 0}
  m_Transition: 1
  m_Colors:
    m_NormalColor: {r: 1, g: 1, b: 1, a: 1}
    m_HighlightedColor: {r: 0.9607843, g: 0.9607843, b: 0.9607843, a: 1}
    m_PressedColor: {r: 0.78431374, g: 0.78431374, b: 0.78431374, a: 1}
    m_SelectedColor: {r: 0.9607843, g: 0.9607843, b: 0.9607843, a: 1}
    m_DisabledColor: {r: 0.78431374, g: 0.78431374, b: 0.78431374, a: 0.5019608}
    m_ColorMultiplier: 1
    m_FadeDuration: 0.1
  m_SpriteState:
    m_HighlightedSprite: {fileID: 0}
    m_PressedSprite: {fileID: 0}
    m_SelectedSprite: {fileID: 0}
    m_DisabledSprite: {fileID: 0}
  m_AnimationTriggers:
    m_NormalTrigger: Normal
    m_HighlightedTrigger: Highlighted
    m_PressedTrigger: Pressed
    m_SelectedTrigger: Selected
    m_DisabledTrigger: Disabled
  m_Interactable: 1
  m_TargetGraphic: {fileID: 6103203566660044244}
  m_OnClick:
    m_PersistentCalls:
      m_Calls: []
--- !u!114 &6103203566660044244 stripped
MonoBehaviour:
  m_CorrespondingSourceObject: {fileID: 3470232625208219419, guid: 2609fdadd8f8c214284a7ae82875b512, type: 3}
  m_PrefabInstance: {fileID: 7249196027380142799}
  m_PrefabAsset: {fileID: 0}
  m_GameObject: {fileID: 4412680426632202693}
  m_Enabled: 1
  m_EditorHideFlags: 0
  m_Script: {fileID: 11500000, guid: fe87c0e1cc204ed48ad3b37840f39efc, type: 3}
  m_Name: 
  m_EditorClassIdentifier: 
