{
  "project_info": {
    "project_number": "740931871605",
    "project_id": "testccg-7830b",
    "storage_bucket": "testccg-7830b.appspot.com"
  },
  "client": [
    {
      "client_info": {
        "mobilesdk_app_id": "1:740931871605:android:736f6e031214b91ecd693c",
        "android_client_info": {
          "package_name": "com.defaultcompany.project"
        }
      },
      "oauth_client": [
        {
          "client_id": "740931871605-a8h5aikdem9ep5pvu5amvbhkhl51m8f4.apps.googleusercontent.com",
          "client_type": 3
        }
      ],
      "api_key": [
        {
          "current_key": "AIzaSyBP08RNygxsFINCpI3WPRiqCumMU2SehwE"
        }
      ],
      "services": {
        "appinvite_service": {
          "other_platform_oauth_client": [
            {
              "client_id": "740931871605-a8h5aikdem9ep5pvu5amvbhkhl51m8f4.apps.googleusercontent.com",
              "client_type": 3
            }
          ]
        }
      }
    }
  ],
  "configuration_version": "1"
}