%YAML 1.1
%TAG !u! tag:unity3d.com,2011:
--- !u!114 &11400000
MonoBehaviour:
  m_ObjectHideFlags: 0
  m_CorrespondingSourceObject: {fileID: 0}
  m_PrefabInstance: {fileID: 0}
  m_PrefabAsset: {fileID: 0}
  m_GameObject: {fileID: 0}
  m_Enabled: 1
  m_EditorHideFlags: 0
  m_Script: {fileID: 11500000, guid: 469c24fdb3bd6431b92cc1465bd9166b, type: 3}
  m_Name: RemoteConfigDataStoreAsset
  m_EditorClassIdentifier: 
  _rsKeyList: '[]'
  _rsLastCachedKeyList: '[]'
  _environments: "[\r\n  {\r\n    \"projectId\": \"98a6f766-c4bc-48c3-8693-760185fd9c75\",\r\n   
    \"name\": \"production\",\r\n    \"id\": \"2aae9a78-ac59-4264-8dbb-2a5e0996677a\",\r\n   
    \"isDefault\": true,\r\n    \"createdAt\": \"2023-02-06T05:12:58Z\",\r\n    \"updatedAt\":
    \"2023-02-06T05:12:58Z\"\r\n  }\r\n]"
